module gitlab.com/m0sh1x2/demos/golang/postgres_gorm

go 1.18

require (
	github.com/PuerkitoBio/goquery v1.8.0
	github.com/gin-contrib/cors v1.3.1
	github.com/gin-gonic/gin v1.7.7
	github.com/googollee/go-socket.io v1.6.1
	github.com/jinzhu/gorm v1.9.16
)

require (
	github.com/andybalholm/cascadia v1.3.1 // indirect
	github.com/gin-contrib/sse v0.1.0 // indirect
	github.com/go-playground/locales v0.13.0 // indirect
	github.com/go-playground/universal-translator v0.17.0 // indirect
	github.com/go-playground/validator/v10 v10.4.1 // indirect
	github.com/gofrs/uuid v4.0.0+incompatible // indirect
	github.com/golang/protobuf v1.3.3 // indirect
	github.com/gomodule/redigo v1.8.4 // indirect
	github.com/gorilla/websocket v1.4.2 // indirect
	github.com/jinzhu/inflection v1.0.0 // indirect
	github.com/json-iterator/go v1.1.9 // indirect
	github.com/leodido/go-urn v1.2.0 // indirect
	github.com/lib/pq v1.1.1 // indirect
	github.com/mattn/go-isatty v0.0.12 // indirect
	github.com/modern-go/concurrent v0.0.0-20180228061459-e0a39a4cb421 // indirect
	github.com/modern-go/reflect2 v0.0.0-20180701023420-4b7aa43c6742 // indirect
	github.com/ugorji/go/codec v1.1.7 // indirect
	golang.org/x/crypto v0.0.0-20200622213623-75b288015ac9 // indirect
	golang.org/x/net v0.0.0-20210916014120-12bc252f5db8 // indirect
	golang.org/x/sys v0.0.0-20210423082822-04245dca01da // indirect
	gopkg.in/yaml.v2 v2.2.8 // indirect
)
